{
	"defaultSeverity": "warning",
	"extends": ["tslint:recommended"],
	"rules": {
		"quotemark": [true, "single", "avoid-escape", "avoid-template"],
		"indent": [true, "tabs"],
		"interface-name": false,
		"ordered-imports": false,
		"object-literal-sort-keys": false,
		"no-consecutive-blank-lines": false,
		"semicolon": false,
		"arrow-parens": [true, "ban-single-arg-parens"],
		"object-literal-key-quotes": false,
		"variable-name": [true, "allow-snake-case", "allow-pascal-case"],
		"no-unused-expression": [true, "allow-new"],
		"no-var-requires": false,
		"trailing-comma": [true, {"multiline": "always", "singleline": "never"}],
		"no-console": [true, "log"]
	}
}
